{
  "AWSTemplateFormatVersion": "2010-09-09",
  "Description": "Sungard AS - This CFN will create Customer Gateway, Virtual Private Gateway and VPN connection.",
  "Parameters": {
    "VPCID": {
      "Description": "Existing VPC ID to deploy the AWS resources.",
      "Type": "AWS::EC2::VPC::Id"
    },
    "RouteTableIdList": {
      "Description": "List of Route table IDs from existing VPC.",
      "Type": "CommaDelimitedList"
    },
	"CutomerGatewayIP": {
      "Description": "The Public IP address of Customer gateway(Data Center end).",
      "Type": "String",
      "MinLength": "9",
      "MaxLength": "18",
      "AllowedPattern": "(\\d{1,3})\\.(\\d{1,3})\\.(\\d{1,3})\\.(\\d{1,3})",
      "ConstraintDescription": "must be a valid IP CIDR range of the form x.x.x.x"
    },
    "DCPrivateNetworkRange": {
      "Description": "The list of IP CIDRs/Blocks of DC private network. Only these subnets will be allowed to access the AWS resources.",
      "Type": "CommaDelimitedList"
    },
	"ASN": {
	  "Description": "BGP ASN",
	  "Type": "Number"
	}
  },
  "Resources": {
    "myCustomerGateway": {
      "Type": "AWS::EC2::CustomerGateway",
      "Properties": {
        "Type": "ipsec.1",
        "BgpAsn": {"Ref": "ASN"},
        "IpAddress": { "Ref": "CutomerGatewayIP" },
		"Tags" : [ {"Key" : "Name", "Value" : "SungardAS-CustomerGateway"} ]
      }
    },
    "myVPNGateway": {
      "Type": "AWS::EC2::VPNGateway",
      "Properties": {
        "Type": "ipsec.1",
		"Tags" : [ {"Key" : "Name", "Value" : "SungardAS-VPNGateway"} ]
      }
    },
    "AttachVpnGateway": {
      "Type": "AWS::EC2::VPCGatewayAttachment",
      "DependsOn": "myVPNGateway",
      "Properties": {
        "VpcId": { "Ref": "VPCID" },
        "VpnGatewayId": { "Ref": "myVPNGateway" }
      }
    },
    "myVPNConnection": {
      "Type": "AWS::EC2::VPNConnection",
	  "DependsOn": "AttachVpnGateway",
      "Properties": {
        "Type": "ipsec.1",
        "StaticRoutesOnly": "false",
        "CustomerGatewayId": { "Ref": "myCustomerGateway" },
        "VpnGatewayId": { "Ref": "myVPNGateway" },
		"Tags" : [ {"Key" : "Name", "Value" : "SungardAS-VPNConnection"} ]
      }
    },
    "myVPNGatewayRouteProp": {
      "Type": "AWS::EC2::VPNGatewayRoutePropagation",
	  "DependsOn": "myVPNConnection",
      "Properties": {
        "RouteTableIds": {"Ref": "RouteTableIdList"},
        "VpnGatewayId": {"Ref": "myVPNGateway"}
      }
    }
  }
}